{
  "version": "1.0.0-*",
  "frameworks": {
    "dnx451": {
      "bin": {
        "assembly": "../../Libraries/Trx.dll"
      },
      "dependencies": {
        "log4net": "1.0.0-*"
      }
    }
  }
}